EESchema Schematic File Version 4
EELAYER 30 0
EELAYER END
$Descr A3 16535 11693
encoding utf-8
Sheet 1 1
Title "Dash"
Date ""
Rev "1.0.0-alpha"
Comp "omkbd"
Comment1 ""
Comment2 ""
Comment3 ""
Comment4 ""
$EndDescr
$Comp
L ergodash-rescue:HOLE-ergodash U1
U 1 1 59F9D799
P 1500 10150
F 0 "U1" H 1500 10150 60  0000 C CNN
F 1 "HOLE" H 1500 10250 60  0000 C CNN
F 2 "Rev2:hole" H 1500 10150 60  0001 C CNN
F 3 "" H 1500 10150 60  0000 C CNN
	1    1500 10150
	1    0    0    -1  
$EndComp
$Comp
L ergodash-rescue:HOLE-ergodash U2
U 1 1 59F9DA24
P 2300 10150
F 0 "U2" H 2300 10150 60  0000 C CNN
F 1 "HOLE" H 2300 10250 60  0000 C CNN
F 2 "Rev2:hole" H 2300 10150 60  0001 C CNN
F 3 "" H 2300 10150 60  0000 C CNN
	1    2300 10150
	1    0    0    -1  
$EndComp
$Comp
L ergodash-rescue:HOLE-ergodash U4
U 1 1 59F9DAB9
P 3100 10150
F 0 "U4" H 3100 10150 60  0000 C CNN
F 1 "HOLE" H 3100 10250 60  0000 C CNN
F 2 "Rev2:hole" H 3100 10150 60  0001 C CNN
F 3 "" H 3100 10150 60  0000 C CNN
	1    3100 10150
	1    0    0    -1  
$EndComp
$Comp
L ergodash-rescue:HOLE-ergodash U5
U 1 1 59F9DB2C
P 3900 10150
F 0 "U5" H 3900 10150 60  0000 C CNN
F 1 "HOLE" H 3900 10250 60  0000 C CNN
F 2 "Rev2:hole" H 3900 10150 60  0001 C CNN
F 3 "" H 3900 10150 60  0000 C CNN
	1    3900 10150
	1    0    0    -1  
$EndComp
$Comp
L ergodash-rescue:ProMicro-promicro U3
U 1 1 59F9DC2A
P 2000 3900
F 0 "U3" H 2000 4850 60  0000 C CNN
F 1 "ProMicro" H 2000 3350 60  0000 C CNN
F 2 "Rev2:ProMicro_rev" H 2100 2850 60  0001 C CNN
F 3 "" H 2100 2850 60  0000 C CNN
	1    2000 3900
	1    0    0    -1  
$EndComp
$Comp
L ergodash-rescue:GND-power #PWR01
U 1 1 59F9DCA3
P 2700 3250
F 0 "#PWR01" H 2700 3000 50  0001 C CNN
F 1 "GND" H 2700 3100 50  0000 C CNN
F 2 "" H 2700 3250 50  0001 C CNN
F 3 "" H 2700 3250 50  0001 C CNN
	1    2700 3250
	0    -1   -1   0   
$EndComp
$Comp
L ergodash-rescue:VCC-power #PWR02
U 1 1 59F9DCC3
P 2700 3450
F 0 "#PWR02" H 2700 3300 50  0001 C CNN
F 1 "VCC" H 2700 3600 50  0000 C CNN
F 2 "" H 2700 3450 50  0001 C CNN
F 3 "" H 2700 3450 50  0001 C CNN
	1    2700 3450
	0    1    1    0   
$EndComp
$Comp
L ergodash-rescue:GND-power #PWR03
U 1 1 59F9DD0D
P 1300 3350
F 0 "#PWR03" H 1300 3100 50  0001 C CNN
F 1 "GND" H 1300 3200 50  0000 C CNN
F 2 "" H 1300 3350 50  0001 C CNN
F 3 "" H 1300 3350 50  0001 C CNN
	1    1300 3350
	0    1    1    0   
$EndComp
$Comp
L ergodash-rescue:GND-power #PWR04
U 1 1 59F9DD2D
P 1300 3450
F 0 "#PWR04" H 1300 3200 50  0001 C CNN
F 1 "GND" H 1300 3300 50  0000 C CNN
F 2 "" H 1300 3450 50  0001 C CNN
F 3 "" H 1300 3450 50  0001 C CNN
	1    1300 3450
	0    1    1    0   
$EndComp
Text Label 3000 3550 0    60   ~ 0
col0
Text Label 3000 3650 0    60   ~ 0
col1
Text Label 3000 3750 0    60   ~ 0
col2
Text Label 3000 3850 0    60   ~ 0
col3
Text Label 3000 3950 0    60   ~ 0
col4
Text Label 3000 4050 0    60   ~ 0
col5
Text Label 3000 4150 0    60   ~ 0
col6
Text Label 800  3550 0    60   ~ 0
scl
Text Label 800  3650 0    60   ~ 0
sda/uart
Text Label 800  3750 0    60   ~ 0
row0
Text Label 800  3950 0    60   ~ 0
row1
Text Label 800  4050 0    60   ~ 0
row2
Text Label 800  4150 0    60   ~ 0
row3
$Comp
L ergodash-rescue:5PIN-ergodash J1
U 1 1 59F9F395
P 3750 2400
F 0 "J1" H 3700 2700 60  0000 C CNN
F 1 "5PIN" H 3700 2100 60  0000 C CNN
F 2 "XESS:PJ-313-4PINS-TH-BS" H 3750 2350 60  0001 C CNN
F 3 "" H 3750 2350 60  0000 C CNN
	1    3750 2400
	0    -1   -1   0   
$EndComp
Text Label 3900 1800 0    60   ~ 0
sda/uart
$Comp
L ergodash-rescue:GND-power #PWR07
U 1 1 59F9FF0A
P 4150 2100
F 0 "#PWR07" H 4150 1850 50  0001 C CNN
F 1 "GND" H 4150 1950 50  0000 C CNN
F 2 "" H 4150 2100 50  0001 C CNN
F 3 "" H 4150 2100 50  0001 C CNN
	1    4150 2100
	1    0    0    -1  
$EndComp
$Comp
L ergodash-rescue:VCC-power #PWR08
U 1 1 59FA0320
P 3550 2200
F 0 "#PWR08" H 3550 2050 50  0001 C CNN
F 1 "VCC" H 3550 2350 50  0000 C CNN
F 2 "" H 3550 2200 50  0001 C CNN
F 3 "" H 3550 2200 50  0001 C CNN
	1    3550 2200
	1    0    0    -1  
$EndComp
Text Label 3200 1800 0    60   ~ 0
xtradata
Text Label 5100 1350 0    60   ~ 0
row0
$Comp
L ergodash-rescue:SW_PUSH-ergodash SW1
U 1 1 59FA0DCB
P 5100 1050
F 0 "SW1" H 5250 1160 50  0000 C CNN
F 1 "SW_PUSH" H 5100 970 50  0000 C CNN
F 2 "Rev2:MX_ALPS_HOTSWAP" H 5100 1050 50  0001 C CNN
F 3 "" H 5100 1050 50  0000 C CNN
	1    5100 1050
	1    0    0    -1  
$EndComp
$Comp
L ergodash-rescue:D-Device D1
U 1 1 59FA0E71
P 5400 1200
F 0 "D1" H 5400 1300 50  0000 C CNN
F 1 "D" H 5400 1100 50  0000 C CNN
F 2 "Rev2:Diode_SMD_THT3" H 5400 1200 50  0001 C CNN
F 3 "" H 5400 1200 50  0001 C CNN
	1    5400 1200
	0    -1   -1   0   
$EndComp
Text Label 4800 1000 1    60   ~ 0
col0
$Comp
L ergodash-rescue:SW_PUSH-ergodash SW5
U 1 1 59FA172B
P 5950 1050
F 0 "SW5" H 6100 1160 50  0000 C CNN
F 1 "SW_PUSH" H 5950 970 50  0000 C CNN
F 2 "Rev2:MX_ALPS_HOTSWAP" H 5950 1050 50  0001 C CNN
F 3 "" H 5950 1050 50  0000 C CNN
	1    5950 1050
	1    0    0    -1  
$EndComp
$Comp
L ergodash-rescue:SW_PUSH-ergodash SW9
U 1 1 59FA17A4
P 6800 1050
F 0 "SW9" H 6950 1160 50  0000 C CNN
F 1 "SW_PUSH" H 6800 970 50  0000 C CNN
F 2 "Rev2:MX_ALPS_HOTSWAP" H 6800 1050 50  0001 C CNN
F 3 "" H 6800 1050 50  0000 C CNN
	1    6800 1050
	1    0    0    -1  
$EndComp
$Comp
L ergodash-rescue:SW_PUSH-ergodash SW13
U 1 1 59FA183D
P 7650 1050
F 0 "SW13" H 7800 1160 50  0000 C CNN
F 1 "SW_PUSH" H 7650 970 50  0000 C CNN
F 2 "Rev2:MX_ALPS_HOTSWAP" H 7650 1050 50  0001 C CNN
F 3 "" H 7650 1050 50  0000 C CNN
	1    7650 1050
	1    0    0    -1  
$EndComp
$Comp
L ergodash-rescue:SW_PUSH-ergodash SW17
U 1 1 59FA1A83
P 8500 1050
F 0 "SW17" H 8650 1160 50  0000 C CNN
F 1 "SW_PUSH" H 8500 970 50  0000 C CNN
F 2 "Rev2:MX_ALPS_HOTSWAP" H 8500 1050 50  0001 C CNN
F 3 "" H 8500 1050 50  0000 C CNN
	1    8500 1050
	1    0    0    -1  
$EndComp
$Comp
L ergodash-rescue:SW_PUSH-ergodash SW21
U 1 1 59FA1F75
P 9350 1050
F 0 "SW21" H 9500 1160 50  0000 C CNN
F 1 "SW_PUSH" H 9350 970 50  0000 C CNN
F 2 "Rev2:MX_ALPS_HOTSWAP" H 9350 1050 50  0001 C CNN
F 3 "" H 9350 1050 50  0000 C CNN
	1    9350 1050
	1    0    0    -1  
$EndComp
$Comp
L ergodash-rescue:SW_PUSH-ergodash SW25
U 1 1 59FA1FE6
P 10200 1050
F 0 "SW25" H 10350 1160 50  0000 C CNN
F 1 "SW_PUSH" H 10200 970 50  0000 C CNN
F 2 "Rev2:MX_ALPS_HOTSWAP" H 10200 1050 50  0001 C CNN
F 3 "" H 10200 1050 50  0000 C CNN
	1    10200 1050
	1    0    0    -1  
$EndComp
$Comp
L ergodash-rescue:D-Device D5
U 1 1 59FA22C9
P 6250 1200
F 0 "D5" H 6250 1300 50  0000 C CNN
F 1 "D" H 6250 1100 50  0000 C CNN
F 2 "Rev2:Diode_SMD_THT3" H 6250 1200 50  0001 C CNN
F 3 "" H 6250 1200 50  0001 C CNN
	1    6250 1200
	0    -1   -1   0   
$EndComp
$Comp
L ergodash-rescue:D-Device D9
U 1 1 59FA236A
P 7100 1200
F 0 "D9" H 7100 1300 50  0000 C CNN
F 1 "D" H 7100 1100 50  0000 C CNN
F 2 "Rev2:Diode_SMD_THT3" H 7100 1200 50  0001 C CNN
F 3 "" H 7100 1200 50  0001 C CNN
	1    7100 1200
	0    -1   -1   0   
$EndComp
$Comp
L ergodash-rescue:D-Device D13
U 1 1 59FA23E7
P 7950 1200
F 0 "D13" H 7950 1300 50  0000 C CNN
F 1 "D" H 7950 1100 50  0000 C CNN
F 2 "Rev2:Diode_SMD_THT3" H 7950 1200 50  0001 C CNN
F 3 "" H 7950 1200 50  0001 C CNN
	1    7950 1200
	0    -1   -1   0   
$EndComp
$Comp
L ergodash-rescue:D-Device D17
U 1 1 59FA2480
P 8800 1200
F 0 "D17" H 8800 1300 50  0000 C CNN
F 1 "D" H 8800 1100 50  0000 C CNN
F 2 "Rev2:Diode_SMD_THT3" H 8800 1200 50  0001 C CNN
F 3 "" H 8800 1200 50  0001 C CNN
	1    8800 1200
	0    -1   -1   0   
$EndComp
$Comp
L ergodash-rescue:D-Device D21
U 1 1 59FA2507
P 9650 1200
F 0 "D21" H 9650 1300 50  0000 C CNN
F 1 "D" H 9650 1100 50  0000 C CNN
F 2 "Rev2:Diode_SMD_THT3" H 9650 1200 50  0001 C CNN
F 3 "" H 9650 1200 50  0001 C CNN
	1    9650 1200
	0    -1   -1   0   
$EndComp
$Comp
L ergodash-rescue:D-Device D25
U 1 1 59FA2598
P 10500 1200
F 0 "D25" H 10500 1300 50  0000 C CNN
F 1 "D" H 10500 1100 50  0000 C CNN
F 2 "Rev2:Diode_SMD_THT3" H 10500 1200 50  0001 C CNN
F 3 "" H 10500 1200 50  0001 C CNN
	1    10500 1200
	0    -1   -1   0   
$EndComp
Text Label 5650 1000 1    60   ~ 0
col1
Text Label 6500 1000 1    60   ~ 0
col2
Text Label 7350 1000 1    60   ~ 0
col3
Text Label 8200 1000 1    60   ~ 0
col4
Text Label 9050 1000 1    60   ~ 0
col5
Text Label 9900 1000 1    60   ~ 0
col6
$Comp
L ergodash-rescue:SW_PUSH-ergodash SW2
U 1 1 59FA2AA5
P 5100 1650
F 0 "SW2" H 5250 1760 50  0000 C CNN
F 1 "SW_PUSH" H 5100 1570 50  0000 C CNN
F 2 "Rev2:MX_ALPS_HOTSWAP" H 5100 1650 50  0001 C CNN
F 3 "" H 5100 1650 50  0000 C CNN
	1    5100 1650
	1    0    0    -1  
$EndComp
$Comp
L ergodash-rescue:SW_PUSH-ergodash SW6
U 1 1 59FA2B20
P 5950 1650
F 0 "SW6" H 6100 1760 50  0000 C CNN
F 1 "SW_PUSH" H 5950 1570 50  0000 C CNN
F 2 "Rev2:MX_ALPS_HOTSWAP" H 5950 1650 50  0001 C CNN
F 3 "" H 5950 1650 50  0000 C CNN
	1    5950 1650
	1    0    0    -1  
$EndComp
$Comp
L ergodash-rescue:SW_PUSH-ergodash SW10
U 1 1 59FA2B9C
P 6800 1650
F 0 "SW10" H 6950 1760 50  0000 C CNN
F 1 "SW_PUSH" H 6800 1570 50  0000 C CNN
F 2 "Rev2:MX_ALPS_HOTSWAP" H 6800 1650 50  0001 C CNN
F 3 "" H 6800 1650 50  0000 C CNN
	1    6800 1650
	1    0    0    -1  
$EndComp
$Comp
L ergodash-rescue:SW_PUSH-ergodash SW14
U 1 1 59FA2C1F
P 7650 1650
F 0 "SW14" H 7800 1760 50  0000 C CNN
F 1 "SW_PUSH" H 7650 1570 50  0000 C CNN
F 2 "Rev2:MX_ALPS_HOTSWAP" H 7650 1650 50  0001 C CNN
F 3 "" H 7650 1650 50  0000 C CNN
	1    7650 1650
	1    0    0    -1  
$EndComp
$Comp
L ergodash-rescue:SW_PUSH-ergodash SW18
U 1 1 59FA2CA5
P 8500 1650
F 0 "SW18" H 8650 1760 50  0000 C CNN
F 1 "SW_PUSH" H 8500 1570 50  0000 C CNN
F 2 "Rev2:MX_ALPS_HOTSWAP" H 8500 1650 50  0001 C CNN
F 3 "" H 8500 1650 50  0000 C CNN
	1    8500 1650
	1    0    0    -1  
$EndComp
$Comp
L ergodash-rescue:SW_PUSH-ergodash SW22
U 1 1 59FA2D2C
P 9350 1650
F 0 "SW22" H 9500 1760 50  0000 C CNN
F 1 "SW_PUSH" H 9350 1570 50  0000 C CNN
F 2 "Rev2:MX_ALPS_HOTSWAP" H 9350 1650 50  0001 C CNN
F 3 "" H 9350 1650 50  0000 C CNN
	1    9350 1650
	1    0    0    -1  
$EndComp
$Comp
L ergodash-rescue:SW_PUSH-ergodash SW26
U 1 1 59FA2DB4
P 10200 1650
F 0 "SW26" H 10350 1760 50  0000 C CNN
F 1 "SW_PUSH" H 10200 1570 50  0000 C CNN
F 2 "Rev2:MX_ALPS_HOTSWAP" H 10200 1650 50  0001 C CNN
F 3 "" H 10200 1650 50  0000 C CNN
	1    10200 1650
	1    0    0    -1  
$EndComp
$Comp
L ergodash-rescue:SW_PUSH-ergodash SW27
U 1 1 59FA2E43
P 10200 2250
F 0 "SW27" H 10350 2360 50  0000 C CNN
F 1 "SW_PUSH" H 10200 2170 50  0000 C CNN
F 2 "Rev2:MX_ALPS_HOTSWAP" H 10200 2250 50  0001 C CNN
F 3 "" H 10200 2250 50  0000 C CNN
	1    10200 2250
	1    0    0    -1  
$EndComp
$Comp
L ergodash-rescue:SW_PUSH-ergodash SW23
U 1 1 59FA2EC7
P 9350 2250
F 0 "SW23" H 9500 2360 50  0000 C CNN
F 1 "SW_PUSH" H 9350 2170 50  0000 C CNN
F 2 "Rev2:MX_ALPS_HOTSWAP" H 9350 2250 50  0001 C CNN
F 3 "" H 9350 2250 50  0000 C CNN
	1    9350 2250
	1    0    0    -1  
$EndComp
$Comp
L ergodash-rescue:SW_PUSH-ergodash SW19
U 1 1 59FA2F5C
P 8500 2250
F 0 "SW19" H 8650 2360 50  0000 C CNN
F 1 "SW_PUSH" H 8500 2170 50  0000 C CNN
F 2 "Rev2:MX_ALPS_HOTSWAP" H 8500 2250 50  0001 C CNN
F 3 "" H 8500 2250 50  0000 C CNN
	1    8500 2250
	1    0    0    -1  
$EndComp
$Comp
L ergodash-rescue:SW_PUSH-ergodash SW15
U 1 1 59FA2FF0
P 7650 2250
F 0 "SW15" H 7800 2360 50  0000 C CNN
F 1 "SW_PUSH" H 7650 2170 50  0000 C CNN
F 2 "Rev2:MX_ALPS_HOTSWAP" H 7650 2250 50  0001 C CNN
F 3 "" H 7650 2250 50  0000 C CNN
	1    7650 2250
	1    0    0    -1  
$EndComp
$Comp
L ergodash-rescue:SW_PUSH-ergodash SW11
U 1 1 59FA308B
P 6800 2250
F 0 "SW11" H 6950 2360 50  0000 C CNN
F 1 "SW_PUSH" H 6800 2170 50  0000 C CNN
F 2 "Rev2:MX_ALPS_HOTSWAP" H 6800 2250 50  0001 C CNN
F 3 "" H 6800 2250 50  0000 C CNN
	1    6800 2250
	1    0    0    -1  
$EndComp
$Comp
L ergodash-rescue:SW_PUSH-ergodash SW7
U 1 1 59FA3125
P 5950 2250
F 0 "SW7" H 6100 2360 50  0000 C CNN
F 1 "SW_PUSH" H 5950 2170 50  0000 C CNN
F 2 "Rev2:MX_ALPS_HOTSWAP" H 5950 2250 50  0001 C CNN
F 3 "" H 5950 2250 50  0000 C CNN
	1    5950 2250
	1    0    0    -1  
$EndComp
$Comp
L ergodash-rescue:SW_PUSH-ergodash SW3
U 1 1 59FA31C6
P 5100 2250
F 0 "SW3" H 5250 2360 50  0000 C CNN
F 1 "SW_PUSH" H 5100 2170 50  0000 C CNN
F 2 "Rev2:MX_ALPS_HOTSWAP" H 5100 2250 50  0001 C CNN
F 3 "" H 5100 2250 50  0000 C CNN
	1    5100 2250
	1    0    0    -1  
$EndComp
$Comp
L ergodash-rescue:SW_PUSH-ergodash SW4
U 1 1 59FA3266
P 5100 2850
F 0 "SW4" H 5250 2960 50  0000 C CNN
F 1 "SW_PUSH" H 5100 2770 50  0000 C CNN
F 2 "Rev2:MX_ALPS_HOTSWAP" H 5100 2850 50  0001 C CNN
F 3 "" H 5100 2850 50  0000 C CNN
	1    5100 2850
	1    0    0    -1  
$EndComp
$Comp
L ergodash-rescue:SW_PUSH-ergodash SW8
U 1 1 59FA3303
P 5950 2850
F 0 "SW8" H 6100 2960 50  0000 C CNN
F 1 "SW_PUSH" H 5950 2770 50  0000 C CNN
F 2 "Rev2:MX_ALPS_HOTSWAP" H 5950 2850 50  0001 C CNN
F 3 "" H 5950 2850 50  0000 C CNN
	1    5950 2850
	1    0    0    -1  
$EndComp
$Comp
L ergodash-rescue:SW_PUSH-ergodash SW12
U 1 1 59FA33BB
P 6800 2850
F 0 "SW12" H 6950 2960 50  0000 C CNN
F 1 "SW_PUSH" H 6800 2770 50  0000 C CNN
F 2 "Rev2:MX_ALPS_HOTSWAP" H 6800 2850 50  0001 C CNN
F 3 "" H 6800 2850 50  0000 C CNN
	1    6800 2850
	1    0    0    -1  
$EndComp
$Comp
L ergodash-rescue:SW_PUSH-ergodash SW16
U 1 1 59FA3468
P 7650 2850
F 0 "SW16" H 7800 2960 50  0000 C CNN
F 1 "SW_PUSH" H 7650 2770 50  0000 C CNN
F 2 "Rev2:MX_ALPS_HOTSWAP" H 7650 2850 50  0001 C CNN
F 3 "" H 7650 2850 50  0000 C CNN
	1    7650 2850
	1    0    0    -1  
$EndComp
$Comp
L ergodash-rescue:SW_PUSH-ergodash SW20
U 1 1 59FA351C
P 8500 2850
F 0 "SW20" H 8650 2960 50  0000 C CNN
F 1 "SW_PUSH" H 8500 2770 50  0000 C CNN
F 2 "Rev2:MX_ALPS_HOTSWAP" H 8500 2850 50  0001 C CNN
F 3 "" H 8500 2850 50  0000 C CNN
	1    8500 2850
	1    0    0    -1  
$EndComp
$Comp
L ergodash-rescue:SW_PUSH-ergodash SW24
U 1 1 59FA35CB
P 9350 2850
F 0 "SW24" H 9500 2960 50  0000 C CNN
F 1 "SW_PUSH" H 9350 2770 50  0000 C CNN
F 2 "Rev2:MX_ALPS_HOTSWAP" H 9350 2850 50  0001 C CNN
F 3 "" H 9350 2850 50  0000 C CNN
	1    9350 2850
	1    0    0    -1  
$EndComp
$Comp
L ergodash-rescue:SW_PUSH-ergodash SW28
U 1 1 59FA367F
P 10200 2850
F 0 "SW28" H 10350 2960 50  0000 C CNN
F 1 "SW_PUSH" H 10200 2770 50  0000 C CNN
F 2 "Rev2:MX_ALPS_HOTSWAP" H 10200 2850 50  0001 C CNN
F 3 "" H 10200 2850 50  0000 C CNN
	1    10200 2850
	1    0    0    -1  
$EndComp
$Comp
L ergodash-rescue:D-Device D2
U 1 1 59FA64D7
P 5400 1800
F 0 "D2" H 5400 1900 50  0000 C CNN
F 1 "D" H 5400 1700 50  0000 C CNN
F 2 "Rev2:Diode_SMD_THT3" H 5400 1800 50  0001 C CNN
F 3 "" H 5400 1800 50  0001 C CNN
	1    5400 1800
	0    -1   -1   0   
$EndComp
$Comp
L ergodash-rescue:D-Device D6
U 1 1 59FA6589
P 6250 1800
F 0 "D6" H 6250 1900 50  0000 C CNN
F 1 "D" H 6250 1700 50  0000 C CNN
F 2 "Rev2:Diode_SMD_THT3" H 6250 1800 50  0001 C CNN
F 3 "" H 6250 1800 50  0001 C CNN
	1    6250 1800
	0    -1   -1   0   
$EndComp
$Comp
L ergodash-rescue:D-Device D10
U 1 1 59FA6648
P 7100 1800
F 0 "D10" H 7100 1900 50  0000 C CNN
F 1 "D" H 7100 1700 50  0000 C CNN
F 2 "Rev2:Diode_SMD_THT3" H 7100 1800 50  0001 C CNN
F 3 "" H 7100 1800 50  0001 C CNN
	1    7100 1800
	0    -1   -1   0   
$EndComp
$Comp
L ergodash-rescue:D-Device D14
U 1 1 59FA6706
P 7950 1800
F 0 "D14" H 7950 1900 50  0000 C CNN
F 1 "D" H 7950 1700 50  0000 C CNN
F 2 "Rev2:Diode_SMD_THT3" H 7950 1800 50  0001 C CNN
F 3 "" H 7950 1800 50  0001 C CNN
	1    7950 1800
	0    -1   -1   0   
$EndComp
$Comp
L ergodash-rescue:D-Device D18
U 1 1 59FA67C7
P 8800 1800
F 0 "D18" H 8800 1900 50  0000 C CNN
F 1 "D" H 8800 1700 50  0000 C CNN
F 2 "Rev2:Diode_SMD_THT3" H 8800 1800 50  0001 C CNN
F 3 "" H 8800 1800 50  0001 C CNN
	1    8800 1800
	0    -1   -1   0   
$EndComp
$Comp
L ergodash-rescue:D-Device D22
U 1 1 59FA688D
P 9650 1800
F 0 "D22" H 9650 1900 50  0000 C CNN
F 1 "D" H 9650 1700 50  0000 C CNN
F 2 "Rev2:Diode_SMD_THT3" H 9650 1800 50  0001 C CNN
F 3 "" H 9650 1800 50  0001 C CNN
	1    9650 1800
	0    -1   -1   0   
$EndComp
$Comp
L ergodash-rescue:D-Device D26
U 1 1 59FA6958
P 10500 1800
F 0 "D26" H 10500 1900 50  0000 C CNN
F 1 "D" H 10500 1700 50  0000 C CNN
F 2 "Rev2:Diode_SMD_THT3" H 10500 1800 50  0001 C CNN
F 3 "" H 10500 1800 50  0001 C CNN
	1    10500 1800
	0    -1   -1   0   
$EndComp
$Comp
L ergodash-rescue:D-Device D27
U 1 1 59FA6A24
P 10500 2400
F 0 "D27" H 10500 2500 50  0000 C CNN
F 1 "D" H 10500 2300 50  0000 C CNN
F 2 "Rev2:Diode_SMD_THT3" H 10500 2400 50  0001 C CNN
F 3 "" H 10500 2400 50  0001 C CNN
	1    10500 2400
	0    -1   -1   0   
$EndComp
$Comp
L ergodash-rescue:D-Device D23
U 1 1 59FA6AE7
P 9650 2400
F 0 "D23" H 9650 2500 50  0000 C CNN
F 1 "D" H 9650 2300 50  0000 C CNN
F 2 "Rev2:Diode_SMD_THT3" H 9650 2400 50  0001 C CNN
F 3 "" H 9650 2400 50  0001 C CNN
	1    9650 2400
	0    -1   -1   0   
$EndComp
$Comp
L ergodash-rescue:D-Device D19
U 1 1 59FA6BC7
P 8800 2400
F 0 "D19" H 8800 2500 50  0000 C CNN
F 1 "D" H 8800 2300 50  0000 C CNN
F 2 "Rev2:Diode_SMD_THT3" H 8800 2400 50  0001 C CNN
F 3 "" H 8800 2400 50  0001 C CNN
	1    8800 2400
	0    -1   -1   0   
$EndComp
$Comp
L ergodash-rescue:D-Device D15
U 1 1 59FA6C9A
P 7950 2400
F 0 "D15" H 7950 2500 50  0000 C CNN
F 1 "D" H 7950 2300 50  0000 C CNN
F 2 "Rev2:Diode_SMD_THT3" H 7950 2400 50  0001 C CNN
F 3 "" H 7950 2400 50  0001 C CNN
	1    7950 2400
	0    -1   -1   0   
$EndComp
$Comp
L ergodash-rescue:D-Device D11
U 1 1 59FA6D72
P 7100 2400
F 0 "D11" H 7100 2500 50  0000 C CNN
F 1 "D" H 7100 2300 50  0000 C CNN
F 2 "Rev2:Diode_SMD_THT3" H 7100 2400 50  0001 C CNN
F 3 "" H 7100 2400 50  0001 C CNN
	1    7100 2400
	0    -1   -1   0   
$EndComp
$Comp
L ergodash-rescue:D-Device D7
U 1 1 59FA6E4D
P 6250 2400
F 0 "D7" H 6250 2500 50  0000 C CNN
F 1 "D" H 6250 2300 50  0000 C CNN
F 2 "Rev2:Diode_SMD_THT3" H 6250 2400 50  0001 C CNN
F 3 "" H 6250 2400 50  0001 C CNN
	1    6250 2400
	0    -1   -1   0   
$EndComp
$Comp
L ergodash-rescue:D-Device D3
U 1 1 59FA6F55
P 5400 2400
F 0 "D3" H 5400 2500 50  0000 C CNN
F 1 "D" H 5400 2300 50  0000 C CNN
F 2 "Rev2:Diode_SMD_THT3" H 5400 2400 50  0001 C CNN
F 3 "" H 5400 2400 50  0001 C CNN
	1    5400 2400
	0    -1   -1   0   
$EndComp
$Comp
L ergodash-rescue:D-Device D4
U 1 1 59FA707B
P 5400 3000
F 0 "D4" H 5400 3100 50  0000 C CNN
F 1 "D" H 5400 2900 50  0000 C CNN
F 2 "Rev2:Diode_SMD_THT3" H 5400 3000 50  0001 C CNN
F 3 "" H 5400 3000 50  0001 C CNN
	1    5400 3000
	0    -1   -1   0   
$EndComp
$Comp
L ergodash-rescue:D-Device D8
U 1 1 59FA7153
P 6250 3000
F 0 "D8" H 6250 3100 50  0000 C CNN
F 1 "D" H 6250 2900 50  0000 C CNN
F 2 "Rev2:Diode_SMD_THT3" H 6250 3000 50  0001 C CNN
F 3 "" H 6250 3000 50  0001 C CNN
	1    6250 3000
	0    -1   -1   0   
$EndComp
$Comp
L ergodash-rescue:D-Device D12
U 1 1 59FA723E
P 7100 3000
F 0 "D12" H 7100 3100 50  0000 C CNN
F 1 "D" H 7100 2900 50  0000 C CNN
F 2 "Rev2:Diode_SMD_THT3" H 7100 3000 50  0001 C CNN
F 3 "" H 7100 3000 50  0001 C CNN
	1    7100 3000
	0    -1   -1   0   
$EndComp
$Comp
L ergodash-rescue:D-Device D16
U 1 1 59FA732E
P 7950 3000
F 0 "D16" H 7950 3100 50  0000 C CNN
F 1 "D" H 7950 2900 50  0000 C CNN
F 2 "Rev2:Diode_SMD_THT3" H 7950 3000 50  0001 C CNN
F 3 "" H 7950 3000 50  0001 C CNN
	1    7950 3000
	0    -1   -1   0   
$EndComp
$Comp
L ergodash-rescue:D-Device D20
U 1 1 59FA741B
P 8800 3000
F 0 "D20" H 8800 3100 50  0000 C CNN
F 1 "D" H 8800 2900 50  0000 C CNN
F 2 "Rev2:Diode_SMD_THT3" H 8800 3000 50  0001 C CNN
F 3 "" H 8800 3000 50  0001 C CNN
	1    8800 3000
	0    -1   -1   0   
$EndComp
$Comp
L ergodash-rescue:D-Device D24
U 1 1 59FA750D
P 9650 3000
F 0 "D24" H 9650 3100 50  0000 C CNN
F 1 "D" H 9650 2900 50  0000 C CNN
F 2 "Rev2:Diode_SMD_THT3" H 9650 3000 50  0001 C CNN
F 3 "" H 9650 3000 50  0001 C CNN
	1    9650 3000
	0    -1   -1   0   
$EndComp
$Comp
L ergodash-rescue:D-Device D28
U 1 1 59FA7600
P 10500 3000
F 0 "D28" H 10500 3100 50  0000 C CNN
F 1 "D" H 10500 2900 50  0000 C CNN
F 2 "Rev2:Diode_SMD_THT3" H 10500 3000 50  0001 C CNN
F 3 "" H 10500 3000 50  0001 C CNN
	1    10500 3000
	0    -1   -1   0   
$EndComp
Text Label 5100 1950 0    60   ~ 0
row1
Text Label 5100 2550 0    60   ~ 0
row2
Text Label 5100 3150 0    60   ~ 0
row3
$Comp
L ergodash-rescue:PWR_FLAG-power #FLG09
U 1 1 59FA8D6F
P 3650 900
F 0 "#FLG09" H 3650 975 50  0001 C CNN
F 1 "PWR_FLAG" H 3650 1050 50  0000 C CNN
F 2 "" H 3650 900 50  0001 C CNN
F 3 "" H 3650 900 50  0001 C CNN
	1    3650 900 
	1    0    0    -1  
$EndComp
$Comp
L ergodash-rescue:PWR_FLAG-power #FLG010
U 1 1 59FA94B9
P 4050 900
F 0 "#FLG010" H 4050 975 50  0001 C CNN
F 1 "PWR_FLAG" H 4050 1050 50  0000 C CNN
F 2 "" H 4050 900 50  0001 C CNN
F 3 "" H 4050 900 50  0001 C CNN
	1    4050 900 
	-1   0    0    1   
$EndComp
$Comp
L ergodash-rescue:GND-power #PWR011
U 1 1 59FA954A
P 3650 900
F 0 "#PWR011" H 3650 650 50  0001 C CNN
F 1 "GND" H 3650 750 50  0000 C CNN
F 2 "" H 3650 900 50  0001 C CNN
F 3 "" H 3650 900 50  0001 C CNN
	1    3650 900 
	1    0    0    -1  
$EndComp
$Comp
L ergodash-rescue:VCC-power #PWR012
U 1 1 59FA95E2
P 4050 900
F 0 "#PWR012" H 4050 750 50  0001 C CNN
F 1 "VCC" H 4050 1050 50  0000 C CNN
F 2 "" H 4050 900 50  0001 C CNN
F 3 "" H 4050 900 50  0001 C CNN
	1    4050 900 
	1    0    0    -1  
$EndComp
$Comp
L ergodash-rescue:HOLE-ergodash U7
U 1 1 5A2C200B
P 4650 10150
F 0 "U7" H 4650 10150 60  0000 C CNN
F 1 "HOLE" H 4650 10250 60  0000 C CNN
F 2 "Rev2:hole" H 4650 10150 60  0001 C CNN
F 3 "" H 4650 10150 60  0000 C CNN
	1    4650 10150
	1    0    0    -1  
$EndComp
Text Label 3050 3350 0    60   ~ 0
rst
$Comp
L ergodash-rescue:SW_Push-switches SW29
U 1 1 5A2C65E7
P 2600 750
F 0 "SW29" H 2650 850 50  0000 L CNN
F 1 "SW_Push" H 2600 690 50  0000 C CNN
F 2 "Rev2:tact_switch2" H 2600 950 50  0001 C CNN
F 3 "" H 2600 950 50  0001 C CNN
	1    2600 750 
	1    0    0    -1  
$EndComp
Text Label 1950 750  0    60   ~ 0
rst
$Comp
L ergodash-rescue:GND-power #PWR013
U 1 1 5A2C7C99
P 3050 950
F 0 "#PWR013" H 3050 700 50  0001 C CNN
F 1 "GND" H 3050 800 50  0000 C CNN
F 2 "" H 3050 950 50  0001 C CNN
F 3 "" H 3050 950 50  0001 C CNN
	1    3050 950 
	1    0    0    -1  
$EndComp
$Comp
L ergodash-rescue:SW_PUSH-ergodash SW30
U 1 1 5AB7C18C
P 5100 3600
F 0 "SW30" H 5250 3710 50  0000 C CNN
F 1 "SW_PUSH" H 5100 3520 50  0000 C CNN
F 2 "Rev2:MX_ALPS_HOTSWAP" H 5100 3600 50  0001 C CNN
F 3 "" H 5100 3600 50  0000 C CNN
	1    5100 3600
	1    0    0    -1  
$EndComp
$Comp
L ergodash-rescue:SW_PUSH-ergodash SW31
U 1 1 5AB7C192
P 5950 3600
F 0 "SW31" H 6100 3710 50  0000 C CNN
F 1 "SW_PUSH" H 5950 3520 50  0000 C CNN
F 2 "Rev2:MX_ALPS_HOTSWAP" H 5950 3600 50  0001 C CNN
F 3 "" H 5950 3600 50  0000 C CNN
	1    5950 3600
	1    0    0    -1  
$EndComp
$Comp
L ergodash-rescue:SW_PUSH-ergodash SW32
U 1 1 5AB7C198
P 6800 3600
F 0 "SW32" H 6950 3710 50  0000 C CNN
F 1 "SW_PUSH" H 6800 3520 50  0000 C CNN
F 2 "Rev2:MX_ALPS_HOTSWAP" H 6800 3600 50  0001 C CNN
F 3 "" H 6800 3600 50  0000 C CNN
	1    6800 3600
	1    0    0    -1  
$EndComp
$Comp
L ergodash-rescue:SW_PUSH-ergodash SW33
U 1 1 5AB7C19E
P 7650 3600
F 0 "SW33" H 7800 3710 50  0000 C CNN
F 1 "SW_PUSH" H 7650 3520 50  0000 C CNN
F 2 "Rev2:MX_ALPS_HOTSWAP" H 7650 3600 50  0001 C CNN
F 3 "" H 7650 3600 50  0000 C CNN
	1    7650 3600
	1    0    0    -1  
$EndComp
$Comp
L ergodash-rescue:SW_PUSH-ergodash SW34
U 1 1 5AB7C1A4
P 8500 3600
F 0 "SW34" H 8650 3710 50  0000 C CNN
F 1 "SW_PUSH" H 8500 3520 50  0000 C CNN
F 2 "Rev2:MX_ALPS_HOTSWAP" H 8500 3600 50  0001 C CNN
F 3 "" H 8500 3600 50  0000 C CNN
	1    8500 3600
	1    0    0    -1  
$EndComp
$Comp
L ergodash-rescue:SW_PUSH-ergodash SW35
U 1 1 5AB7C1AA
P 9350 3600
F 0 "SW35" H 9500 3710 50  0000 C CNN
F 1 "SW_PUSH" H 9350 3520 50  0000 C CNN
F 2 "Rev2:MX_ALPS_HOTSWAP" H 9350 3600 50  0001 C CNN
F 3 "" H 9350 3600 50  0000 C CNN
	1    9350 3600
	1    0    0    -1  
$EndComp
$Comp
L ergodash-rescue:D-Device D29
U 1 1 5AB7C1B6
P 5400 3750
F 0 "D29" H 5400 3850 50  0000 C CNN
F 1 "D" H 5400 3650 50  0000 C CNN
F 2 "Rev2:Diode_SMD_THT3" H 5400 3750 50  0001 C CNN
F 3 "" H 5400 3750 50  0001 C CNN
	1    5400 3750
	0    -1   -1   0   
$EndComp
$Comp
L ergodash-rescue:D-Device D30
U 1 1 5AB7C1BC
P 6250 3750
F 0 "D30" H 6250 3850 50  0000 C CNN
F 1 "D" H 6250 3650 50  0000 C CNN
F 2 "Rev2:Diode_SMD_THT3" H 6250 3750 50  0001 C CNN
F 3 "" H 6250 3750 50  0001 C CNN
	1    6250 3750
	0    -1   -1   0   
$EndComp
$Comp
L ergodash-rescue:D-Device D31
U 1 1 5AB7C1C2
P 7100 3750
F 0 "D31" H 7100 3850 50  0000 C CNN
F 1 "D" H 7100 3650 50  0000 C CNN
F 2 "Rev2:Diode_SMD_THT3" H 7100 3750 50  0001 C CNN
F 3 "" H 7100 3750 50  0001 C CNN
	1    7100 3750
	0    -1   -1   0   
$EndComp
$Comp
L ergodash-rescue:D-Device D32
U 1 1 5AB7C1C8
P 7950 3750
F 0 "D32" H 7950 3850 50  0000 C CNN
F 1 "D" H 7950 3650 50  0000 C CNN
F 2 "Rev2:Diode_SMD_THT3" H 7950 3750 50  0001 C CNN
F 3 "" H 7950 3750 50  0001 C CNN
	1    7950 3750
	0    -1   -1   0   
$EndComp
$Comp
L ergodash-rescue:D-Device D33
U 1 1 5AB7C1CE
P 8800 3750
F 0 "D33" H 8800 3850 50  0000 C CNN
F 1 "D" H 8800 3650 50  0000 C CNN
F 2 "Rev2:Diode_SMD_THT3" H 8800 3750 50  0001 C CNN
F 3 "" H 8800 3750 50  0001 C CNN
	1    8800 3750
	0    -1   -1   0   
$EndComp
$Comp
L ergodash-rescue:D-Device D34
U 1 1 5AB7C1D4
P 9650 3750
F 0 "D34" H 9650 3850 50  0000 C CNN
F 1 "D" H 9650 3650 50  0000 C CNN
F 2 "Rev2:Diode_SMD_THT3" H 9650 3750 50  0001 C CNN
F 3 "" H 9650 3750 50  0001 C CNN
	1    9650 3750
	0    -1   -1   0   
$EndComp
Text Label 5100 3900 0    60   ~ 0
row4
Text Label 800  4250 0    60   ~ 0
row4
Text Label 800  3150 0    60   ~ 0
RBG
Text Label 800  3250 0    60   ~ 0
RX
Text Label 3000 4250 0    60   ~ 0
Backlight
$Comp
L ergodash-rescue:GND-power #PWR018
U 1 1 5B0300F1
P 2750 4900
F 0 "#PWR018" H 2750 4650 50  0001 C CNN
F 1 "GND" H 2750 4750 50  0000 C CNN
F 2 "" H 2750 4900 50  0001 C CNN
F 3 "" H 2750 4900 50  0001 C CNN
	1    2750 4900
	0    -1   -1   0   
$EndComp
Text Label 3050 5000 0    60   ~ 0
rst
$Comp
L ergodash-rescue:VCC-power #PWR019
U 1 1 5B030405
P 2750 5100
F 0 "#PWR019" H 2750 4950 50  0001 C CNN
F 1 "VCC" H 2750 5250 50  0000 C CNN
F 2 "" H 2750 5100 50  0001 C CNN
F 3 "" H 2750 5100 50  0001 C CNN
	1    2750 5100
	0    1    1    0   
$EndComp
$Comp
L ergodash-rescue:GND-power #PWR020
U 1 1 5B030570
P 1300 5000
F 0 "#PWR020" H 1300 4750 50  0001 C CNN
F 1 "GND" H 1300 4850 50  0000 C CNN
F 2 "" H 1300 5000 50  0001 C CNN
F 3 "" H 1300 5000 50  0001 C CNN
	1    1300 5000
	0    1    1    0   
$EndComp
$Comp
L ergodash-rescue:GND-power #PWR021
U 1 1 5B030576
P 1300 5100
F 0 "#PWR021" H 1300 4850 50  0001 C CNN
F 1 "GND" H 1300 4950 50  0000 C CNN
F 2 "" H 1300 5100 50  0001 C CNN
F 3 "" H 1300 5100 50  0001 C CNN
	1    1300 5100
	0    1    1    0   
$EndComp
Text Label 800  5200 0    60   ~ 0
scl
Text Label 800  5300 0    60   ~ 0
sda/uart
Text Label 800  4800 0    60   ~ 0
RBG
Text Label 800  4900 0    60   ~ 0
RX
$Comp
L ergodash-rescue:SW_Push-switches SW37
U 1 1 5B031444
P 1200 750
F 0 "SW37" H 1250 850 50  0000 L CNN
F 1 "SW_Push" H 1200 690 50  0000 C CNN
F 2 "Rev2:tact_switch2" H 1200 950 50  0001 C CNN
F 3 "" H 1200 950 50  0001 C CNN
	1    1200 750 
	1    0    0    -1  
$EndComp
Text Label 550  750  0    60   ~ 0
rst
$Comp
L ergodash-rescue:GND-power #PWR022
U 1 1 5B03144B
P 1650 950
F 0 "#PWR022" H 1650 700 50  0001 C CNN
F 1 "GND" H 1650 800 50  0000 C CNN
F 2 "" H 1650 950 50  0001 C CNN
F 3 "" H 1650 950 50  0001 C CNN
	1    1650 950 
	1    0    0    -1  
$EndComp
NoConn ~ 2700 4800
NoConn ~ 2700 3150
$Comp
L ergodash-rescue:HOLE-ergodash U8
U 1 1 5B0439E2
P 5400 10150
F 0 "U8" H 5400 10150 60  0000 C CNN
F 1 "HOLE" H 5400 10250 60  0000 C CNN
F 2 "Rev2:hole" H 5400 10150 60  0001 C CNN
F 3 "" H 5400 10150 60  0000 C CNN
	1    5400 10150
	1    0    0    -1  
$EndComp
$Comp
L ergodash-rescue:SW_PUSH-ergodash SW36
U 1 1 5B057899
P 9350 3300
F 0 "SW36" H 9500 3410 50  0000 C CNN
F 1 "SW_PUSH" H 9350 3220 50  0000 C CNN
F 2 "Rev2:MX_ALPS_HOTSWAP" H 9350 3300 50  0001 C CNN
F 3 "" H 9350 3300 50  0000 C CNN
	1    9350 3300
	1    0    0    -1  
$EndComp
$Comp
L ergodash-rescue:WS2812B-ws2812b LED2
U 1 1 5B0740D7
P 6850 4700
F 0 "LED2" H 6850 4500 60  0000 C CNN
F 1 "WS2812B" H 6850 4900 60  0000 C CNN
F 2 "LED:LED_WS2812_0807_HOLE" V 7100 5000 60  0001 C CNN
F 3 "" V 6800 4700 60  0000 C CNN
	1    6850 4700
	1    0    0    -1  
$EndComp
$Comp
L ergodash-rescue:WS2812B-ws2812b LED3
U 1 1 5B074854
P 7500 4700
F 0 "LED3" H 7500 4500 60  0000 C CNN
F 1 "WS2812B" H 7500 4900 60  0000 C CNN
F 2 "LED:LED_WS2812_0807_HOLE" V 7750 5000 60  0001 C CNN
F 3 "" V 7450 4700 60  0000 C CNN
	1    7500 4700
	1    0    0    -1  
$EndComp
$Comp
L ergodash-rescue:WS2812B-ws2812b LED4
U 1 1 5B074A2C
P 8150 4700
F 0 "LED4" H 8150 4500 60  0000 C CNN
F 1 "WS2812B" H 8150 4900 60  0000 C CNN
F 2 "LED:LED_WS2812_0807_HOLE" V 8400 5000 60  0001 C CNN
F 3 "" V 8100 4700 60  0000 C CNN
	1    8150 4700
	1    0    0    -1  
$EndComp
$Comp
L ergodash-rescue:WS2812B-ws2812b LED5
U 1 1 5B074B5B
P 8800 4700
F 0 "LED5" H 8800 4500 60  0000 C CNN
F 1 "WS2812B" H 8800 4900 60  0000 C CNN
F 2 "LED:LED_WS2812_0807_HOLE" V 9050 5000 60  0001 C CNN
F 3 "" V 8750 4700 60  0000 C CNN
	1    8800 4700
	1    0    0    -1  
$EndComp
$Comp
L ergodash-rescue:WS2812B-ws2812b LED6
U 1 1 5B074DF9
P 9450 4700
F 0 "LED6" H 9450 4500 60  0000 C CNN
F 1 "WS2812B" H 9450 4900 60  0000 C CNN
F 2 "LED:LED_WS2812_0807_HOLE" V 9700 5000 60  0001 C CNN
F 3 "" V 9400 4700 60  0000 C CNN
	1    9450 4700
	1    0    0    -1  
$EndComp
$Comp
L ergodash-rescue:WS2812B-ws2812b LED7
U 1 1 5B074F24
P 6200 5600
F 0 "LED7" H 6200 5400 60  0000 C CNN
F 1 "WS2812B" H 6200 5800 60  0000 C CNN
F 2 "LED:LED_WS2812_0807_HOLE" V 6450 5900 60  0001 C CNN
F 3 "" V 6150 5600 60  0000 C CNN
	1    6200 5600
	1    0    0    -1  
$EndComp
$Comp
L ergodash-rescue:WS2812B-ws2812b LED8
U 1 1 5B075060
P 6850 5600
F 0 "LED8" H 6850 5400 60  0000 C CNN
F 1 "WS2812B" H 6850 5800 60  0000 C CNN
F 2 "LED:LED_WS2812_0807_HOLE" V 7100 5900 60  0001 C CNN
F 3 "" V 6800 5600 60  0000 C CNN
	1    6850 5600
	1    0    0    -1  
$EndComp
$Comp
L ergodash-rescue:WS2812B-ws2812b LED9
U 1 1 5B075195
P 7500 5600
F 0 "LED9" H 7500 5400 60  0000 C CNN
F 1 "WS2812B" H 7500 5800 60  0000 C CNN
F 2 "LED:LED_WS2812_0807_HOLE" V 7750 5900 60  0001 C CNN
F 3 "" V 7450 5600 60  0000 C CNN
	1    7500 5600
	1    0    0    -1  
$EndComp
$Comp
L ergodash-rescue:WS2812B-ws2812b LED10
U 1 1 5B0752C5
P 8150 5600
F 0 "LED10" H 8150 5400 60  0000 C CNN
F 1 "WS2812B" H 8150 5800 60  0000 C CNN
F 2 "LED:LED_WS2812_0807_HOLE" V 8400 5900 60  0001 C CNN
F 3 "" V 8100 5600 60  0000 C CNN
	1    8150 5600
	1    0    0    -1  
$EndComp
$Comp
L ergodash-rescue:WS2812B-ws2812b LED12
U 1 1 5B07553E
P 9450 5600
F 0 "LED12" H 9450 5400 60  0000 C CNN
F 1 "WS2812B" H 9450 5800 60  0000 C CNN
F 2 "LED:LED_WS2812_0807_HOLE" V 9700 5900 60  0001 C CNN
F 3 "" V 9400 5600 60  0000 C CNN
	1    9450 5600
	1    0    0    -1  
$EndComp
Text Label 5400 4800 0    60   ~ 0
RBG
$Comp
L ergodash-rescue:VCC-power #PWR023
U 1 1 5B07A324
P 4250 4450
F 0 "#PWR023" H 4250 4300 50  0001 C CNN
F 1 "VCC" H 4250 4600 50  0000 C CNN
F 2 "" H 4250 4450 50  0001 C CNN
F 3 "" H 4250 4450 50  0001 C CNN
	1    4250 4450
	1    0    0    -1  
$EndComp
$Comp
L ergodash-rescue:GND-power #PWR024
U 1 1 5B07A87D
P 4250 5150
F 0 "#PWR024" H 4250 4900 50  0001 C CNN
F 1 "GND" H 4250 5000 50  0000 C CNN
F 2 "" H 4250 5150 50  0001 C CNN
F 3 "" H 4250 5150 50  0001 C CNN
	1    4250 5150
	1    0    0    -1  
$EndComp
Wire Wire Line
	1300 3650 800  3650
Wire Wire Line
	1300 3550 800  3550
Wire Wire Line
	3850 2200 3850 2100
Wire Wire Line
	3750 1800 3750 2200
Wire Wire Line
	3750 1800 4300 1800
Wire Wire Line
	3650 2200 3650 1800
Wire Wire Line
	3650 1800 3200 1800
Wire Wire Line
	5100 1350 5400 1350
Connection ~ 5400 1350
Wire Wire Line
	4800 800  4800 1050
Connection ~ 4800 1050
Connection ~ 9650 1350
Connection ~ 8800 1350
Connection ~ 7950 1350
Connection ~ 7100 1350
Connection ~ 6250 1350
Wire Wire Line
	5650 800  5650 1050
Wire Wire Line
	6500 800  6500 1050
Wire Wire Line
	7350 800  7350 1050
Wire Wire Line
	8200 800  8200 1050
Connection ~ 9900 1050
Connection ~ 9050 1050
Connection ~ 8200 1050
Connection ~ 7350 1050
Connection ~ 6500 1050
Connection ~ 5650 1050
Wire Wire Line
	5100 1950 5400 1950
Wire Wire Line
	5100 2550 5400 2550
Wire Wire Line
	5100 3150 5400 3150
Connection ~ 9650 1950
Connection ~ 8800 1950
Connection ~ 7950 1950
Connection ~ 7100 1950
Connection ~ 6250 1950
Connection ~ 5400 1950
Connection ~ 5400 2550
Connection ~ 6250 2550
Connection ~ 7100 2550
Connection ~ 7950 2550
Connection ~ 8800 2550
Connection ~ 9650 2550
Connection ~ 9650 3150
Connection ~ 8800 3150
Connection ~ 7950 3150
Connection ~ 7100 3150
Connection ~ 6250 3150
Connection ~ 5400 3150
Connection ~ 9900 1650
Connection ~ 9050 1650
Connection ~ 8200 1650
Connection ~ 7350 1650
Connection ~ 6500 1650
Connection ~ 5650 1650
Connection ~ 4800 1650
Connection ~ 4800 2250
Connection ~ 5650 2250
Connection ~ 6500 2250
Connection ~ 7350 2250
Connection ~ 8200 2250
Connection ~ 9050 2250
Connection ~ 9900 2250
Wire Wire Line
	2400 750  1950 750 
Wire Wire Line
	2800 750  3050 750 
Wire Wire Line
	3050 750  3050 950 
Connection ~ 8800 3900
Connection ~ 7950 3900
Connection ~ 7100 3900
Connection ~ 6250 3900
Connection ~ 5400 3900
Connection ~ 4800 2850
Connection ~ 5650 2850
Connection ~ 6500 2850
Connection ~ 7350 2850
Connection ~ 8200 2850
Connection ~ 9050 2850
Connection ~ 9900 2850
Wire Wire Line
	800  3150 1300 3150
Wire Wire Line
	800  3250 1300 3250
Wire Wire Line
	1300 5300 800  5300
Wire Wire Line
	1300 5200 800  5200
Wire Wire Line
	800  4800 1300 4800
Wire Wire Line
	800  4900 1300 4900
Wire Wire Line
	2700 4900 2750 4900
Wire Wire Line
	2700 5100 2750 5100
Wire Wire Line
	1000 750  550  750 
Wire Wire Line
	1400 750  1650 750 
Wire Wire Line
	1650 750  1650 950 
Wire Wire Line
	9900 1000 9900 1050
Wire Wire Line
	5100 3900 5400 3900
Wire Wire Line
	9650 3600 9650 3300
Wire Wire Line
	9050 1000 9050 1050
Connection ~ 9050 3300
Connection ~ 6750 4350
Connection ~ 7400 4350
Connection ~ 8050 4350
Connection ~ 8700 4350
Connection ~ 6750 5250
Connection ~ 7400 5250
Wire Wire Line
	6300 5050 6950 5050
Connection ~ 6950 5050
Connection ~ 7600 5050
Connection ~ 8250 5050
Connection ~ 8900 5050
Connection ~ 6950 5950
Connection ~ 7600 5950
Connection ~ 8250 5950
Wire Wire Line
	6550 4600 6550 4700
Wire Wire Line
	6550 4700 6500 4700
Wire Wire Line
	6500 4700 6500 4800
Wire Wire Line
	7200 4600 7200 4700
Wire Wire Line
	7200 4700 7150 4700
Wire Wire Line
	7150 4700 7150 4800
Wire Wire Line
	7850 4600 7850 4700
Wire Wire Line
	7850 4700 7800 4700
Wire Wire Line
	7800 4700 7800 4800
Wire Wire Line
	8500 4600 8500 4700
Wire Wire Line
	8500 4700 8450 4700
Wire Wire Line
	8450 4700 8450 4800
Wire Wire Line
	9150 4600 9150 4700
Wire Wire Line
	9150 4700 9100 4700
Wire Wire Line
	9100 4700 9100 4800
Wire Wire Line
	6550 5500 6550 5600
Wire Wire Line
	6550 5600 6500 5600
Wire Wire Line
	6500 5600 6500 5700
Wire Wire Line
	7200 5500 7200 5600
Wire Wire Line
	7200 5600 7150 5600
Wire Wire Line
	7150 5600 7150 5700
Wire Wire Line
	7850 5500 7850 5600
Wire Wire Line
	7850 5600 7800 5600
Wire Wire Line
	7800 5600 7800 5700
Wire Wire Line
	8500 5500 8500 5600
Wire Wire Line
	8500 5600 8450 5600
Wire Wire Line
	8450 5600 8450 5700
Wire Wire Line
	9150 5500 9150 5600
Wire Wire Line
	9150 5600 9100 5600
Wire Wire Line
	9100 5600 9100 5700
Wire Wire Line
	5400 4800 5850 4800
Wire Wire Line
	5850 5700 5850 5150
Wire Wire Line
	5850 5150 9800 5150
Wire Wire Line
	9800 5150 9800 4600
Wire Wire Line
	5100 4350 5100 4550
Connection ~ 6100 5250
Wire Wire Line
	10350 5950 10350 5050
Connection ~ 9550 5950
Connection ~ 9550 5050
Wire Wire Line
	4250 4450 4500 4450
Wire Wire Line
	4500 4950 4250 4950
Wire Wire Line
	4250 4950 4250 4450
Wire Wire Line
	4250 5150 4400 5150
Wire Wire Line
	4500 4650 4400 4650
Wire Wire Line
	4400 4650 4400 5150
Connection ~ 4400 5150
Connection ~ 5100 4550
Wire Wire Line
	4800 5050 5050 5050
Wire Wire Line
	5050 5050 5050 5950
Connection ~ 6300 5950
Text Label 3050 5200 0    60   ~ 0
col0
Text Label 3050 5300 0    60   ~ 0
col1
Text Label 3050 5400 0    60   ~ 0
col2
Text Label 3050 5500 0    60   ~ 0
col3
Text Label 3050 5600 0    60   ~ 0
col4
Text Label 3050 5700 0    60   ~ 0
col5
Text Label 3050 5800 0    60   ~ 0
col6
Text Label 3050 5900 0    60   ~ 0
Backlight
Wire Wire Line
	2700 3550 3000 3550
Wire Wire Line
	2700 3650 3000 3650
Wire Wire Line
	2700 3750 3000 3750
Wire Wire Line
	2700 3850 3000 3850
Wire Wire Line
	2700 3950 3000 3950
Wire Wire Line
	2700 4050 3000 4050
Wire Wire Line
	2700 4150 3000 4150
Wire Wire Line
	3000 4250 2700 4250
Wire Wire Line
	2700 5200 3050 5200
Wire Wire Line
	2700 5300 3050 5300
Wire Wire Line
	2700 5400 3050 5400
Wire Wire Line
	2700 5500 3050 5500
Wire Wire Line
	2700 5600 3050 5600
Wire Wire Line
	2700 5700 3050 5700
Wire Wire Line
	2700 5800 3050 5800
Wire Wire Line
	2700 5900 3050 5900
Wire Wire Line
	2700 5000 3050 5000
Wire Wire Line
	2700 3350 3050 3350
Wire Wire Line
	800  3750 1300 3750
Wire Wire Line
	800  3950 1300 3950
Wire Wire Line
	800  4050 1300 4050
Wire Wire Line
	800  4150 1300 4150
Wire Wire Line
	800  4250 1300 4250
Text Label 800  5400 0    60   ~ 0
row0
Text Label 800  5600 0    60   ~ 0
row1
Text Label 800  5700 0    60   ~ 0
row2
Text Label 800  5800 0    60   ~ 0
row3
Text Label 800  5900 0    60   ~ 0
row4
Wire Wire Line
	800  5400 1300 5400
Wire Wire Line
	800  5600 1300 5600
Wire Wire Line
	800  5700 1300 5700
Wire Wire Line
	800  5800 1300 5800
Wire Wire Line
	800  5900 1300 5900
$Comp
L ergodash-rescue:HOLE-ergodash U9
U 1 1 5B1A44B3
P 6150 10150
F 0 "U9" H 6150 10150 60  0000 C CNN
F 1 "HOLE" H 6150 10250 60  0000 C CNN
F 2 "Rev2:hole" H 6150 10150 60  0001 C CNN
F 3 "" H 6150 10150 60  0000 C CNN
	1    6150 10150
	1    0    0    -1  
$EndComp
$Comp
L ergodash-rescue:SW_PUSH-ergodash SW38
U 1 1 5B1BE4A6
P 7650 3300
F 0 "SW38" H 7800 3410 50  0000 C CNN
F 1 "SW_PUSH" H 7650 3220 50  0000 C CNN
F 2 "Rev2:MX_ALPS_HOTSWAP" H 7650 3300 50  0001 C CNN
F 3 "" H 7650 3300 50  0000 C CNN
	1    7650 3300
	1    0    0    -1  
$EndComp
Connection ~ 7350 3300
Wire Wire Line
	7950 3300 7950 3600
$Comp
L ergodash-rescue:SW_PUSH-ergodash SW41
U 1 1 5B1C7BC5
P 10200 3600
F 0 "SW41" H 10350 3710 50  0000 C CNN
F 1 "SW_PUSH" H 10200 3520 50  0000 C CNN
F 2 "Rev2:MX_ALPS_HOTSWAP" H 10200 3600 50  0001 C CNN
F 3 "" H 10200 3600 50  0000 C CNN
	1    10200 3600
	1    0    0    -1  
$EndComp
$Comp
L ergodash-rescue:D-Device D68
U 1 1 5B1C7BCB
P 10500 3750
F 0 "D68" H 10500 3850 50  0000 C CNN
F 1 "D" H 10500 3650 50  0000 C CNN
F 2 "Rev2:Diode_SMD_THT2" H 10500 3750 50  0001 C CNN
F 3 "" H 10500 3750 50  0001 C CNN
	1    10500 3750
	0    -1   -1   0   
$EndComp
$Comp
L ergodash-rescue:SW_PUSH-ergodash SW40
U 1 1 5B1C7BD1
P 10200 3300
F 0 "SW40" H 10350 3410 50  0000 C CNN
F 1 "SW_PUSH" H 10200 3220 50  0000 C CNN
F 2 "Rev2:MX_ALPS_HOTSWAP" H 10200 3300 50  0001 C CNN
F 3 "" H 10200 3300 50  0000 C CNN
	1    10200 3300
	1    0    0    -1  
$EndComp
Wire Wire Line
	5950 3900 6250 3900
Wire Wire Line
	10500 3600 10500 3300
Connection ~ 9650 3900
Connection ~ 9900 3300
$Comp
L ergodash-rescue:SW_PUSH-ergodash SW39
U 1 1 5B1C8B13
P 10200 2650
F 0 "SW39" H 10350 2760 50  0000 C CNN
F 1 "SW_PUSH" H 10200 2570 50  0000 C CNN
F 2 "Rev2:MX_ALPS_HOTSWAP" H 10200 2650 50  0001 C CNN
F 3 "" H 10200 2650 50  0000 C CNN
	1    10200 2650
	1    0    0    -1  
$EndComp
Connection ~ 9900 2650
Wire Wire Line
	10500 2650 10500 2850
Wire Wire Line
	5400 1350 6250 1350
Wire Wire Line
	4800 1050 4800 1650
Wire Wire Line
	9650 1350 10500 1350
Wire Wire Line
	8800 1350 9650 1350
Wire Wire Line
	7950 1350 8800 1350
Wire Wire Line
	7100 1350 7950 1350
Wire Wire Line
	6250 1350 7100 1350
Wire Wire Line
	9900 1050 9900 1650
Wire Wire Line
	9050 1050 9050 1650
Wire Wire Line
	8200 1050 8200 1650
Wire Wire Line
	7350 1050 7350 1650
Wire Wire Line
	6500 1050 6500 1650
Wire Wire Line
	5650 1050 5650 1650
Wire Wire Line
	9650 1950 10500 1950
Wire Wire Line
	8800 1950 9650 1950
Wire Wire Line
	7950 1950 8800 1950
Wire Wire Line
	7100 1950 7950 1950
Wire Wire Line
	6250 1950 7100 1950
Wire Wire Line
	5400 1950 6250 1950
Wire Wire Line
	5400 2550 6250 2550
Wire Wire Line
	6250 2550 7100 2550
Wire Wire Line
	7100 2550 7950 2550
Wire Wire Line
	7950 2550 8800 2550
Wire Wire Line
	8800 2550 9650 2550
Wire Wire Line
	9650 2550 10500 2550
Wire Wire Line
	9650 3150 10500 3150
Wire Wire Line
	8800 3150 9650 3150
Wire Wire Line
	7950 3150 8800 3150
Wire Wire Line
	7100 3150 7950 3150
Wire Wire Line
	6250 3150 7100 3150
Wire Wire Line
	5400 3150 6250 3150
Wire Wire Line
	9900 1650 9900 2250
Wire Wire Line
	9050 1650 9050 2250
Wire Wire Line
	8200 1650 8200 2250
Wire Wire Line
	7350 1650 7350 2250
Wire Wire Line
	6500 1650 6500 2250
Wire Wire Line
	5650 1650 5650 2250
Wire Wire Line
	4800 1650 4800 2250
Wire Wire Line
	4800 2250 4800 2850
Wire Wire Line
	5650 2250 5650 2850
Wire Wire Line
	6500 2250 6500 2850
Wire Wire Line
	7350 2250 7350 2850
Wire Wire Line
	8200 2250 8200 2850
Wire Wire Line
	9050 2250 9050 2850
Wire Wire Line
	9900 2250 9900 2650
Wire Wire Line
	8800 3900 9650 3900
Wire Wire Line
	7950 3900 8800 3900
Wire Wire Line
	7100 3900 7950 3900
Wire Wire Line
	6250 3900 7100 3900
Wire Wire Line
	5400 3900 6250 3900
Wire Wire Line
	4800 2850 4800 3600
Wire Wire Line
	5650 2850 5650 3600
Wire Wire Line
	6500 2850 6500 3600
Wire Wire Line
	7350 2850 7350 3300
Wire Wire Line
	8200 2850 8200 3600
Wire Wire Line
	9050 2850 9050 3300
Wire Wire Line
	9900 2850 9900 3300
Wire Wire Line
	9050 3300 9050 3600
Wire Wire Line
	6750 4350 7400 4350
Wire Wire Line
	7400 4350 8050 4350
Wire Wire Line
	8050 4350 8700 4350
Wire Wire Line
	8700 4350 9350 4350
Wire Wire Line
	6750 5250 7400 5250
Wire Wire Line
	7400 5250 8050 5250
Wire Wire Line
	6950 5050 7600 5050
Wire Wire Line
	7600 5050 8250 5050
Wire Wire Line
	8250 5050 8900 5050
Wire Wire Line
	8900 5050 9550 5050
Wire Wire Line
	6950 5950 7600 5950
Wire Wire Line
	7600 5950 8250 5950
Wire Wire Line
	6100 5250 6750 5250
Wire Wire Line
	9550 5950 10350 5950
Wire Wire Line
	9550 5050 10350 5050
Wire Wire Line
	5100 4550 5100 5250
Wire Wire Line
	6300 5950 6950 5950
Wire Wire Line
	7350 3300 7350 3600
Wire Wire Line
	9650 3900 10500 3900
Wire Wire Line
	9900 3300 9900 3600
Wire Wire Line
	9900 2650 9900 2850
Wire Wire Line
	5100 5250 6100 5250
Wire Wire Line
	5050 5950 6300 5950
Wire Wire Line
	5100 4350 6100 4350
Wire Wire Line
	6100 4350 6750 4350
Connection ~ 6100 4350
$Comp
L ergodash-rescue:WS2812B-ws2812b LED1
U 1 1 5B073BB2
P 6200 4700
F 0 "LED1" H 6200 4500 60  0000 C CNN
F 1 "WS2812B" H 6200 4900 60  0000 C CNN
F 2 "LED:LED_WS2812_0807_HOLE" V 6450 5000 60  0001 C CNN
F 3 "" V 6150 4700 60  0000 C CNN
	1    6200 4700
	1    0    0    -1  
$EndComp
$Comp
L ergodash-rescue:WS2812B-ws2812b LED15
U 1 1 5F8E3776
P 6850 6550
F 0 "LED15" H 6850 6350 60  0000 C CNN
F 1 "WS2812B" H 6850 6750 60  0000 C CNN
F 2 "LED:LED_WS2812_0807_HOLE" V 7100 6850 60  0001 C CNN
F 3 "" V 6800 6550 60  0000 C CNN
	1    6850 6550
	1    0    0    -1  
$EndComp
$Comp
L ergodash-rescue:WS2812B-ws2812b LED17
U 1 1 5F8E3780
P 7500 6550
F 0 "LED17" H 7500 6350 60  0000 C CNN
F 1 "WS2812B" H 7500 6750 60  0000 C CNN
F 2 "LED:LED_WS2812_0807_HOLE" V 7750 6850 60  0001 C CNN
F 3 "" V 7450 6550 60  0000 C CNN
	1    7500 6550
	1    0    0    -1  
$EndComp
$Comp
L ergodash-rescue:WS2812B-ws2812b LED19
U 1 1 5F8E378A
P 8150 6550
F 0 "LED19" H 8150 6350 60  0000 C CNN
F 1 "WS2812B" H 8150 6750 60  0000 C CNN
F 2 "LED:LED_WS2812_0807_HOLE" V 8400 6850 60  0001 C CNN
F 3 "" V 8100 6550 60  0000 C CNN
	1    8150 6550
	1    0    0    -1  
$EndComp
$Comp
L ergodash-rescue:WS2812B-ws2812b LED21
U 1 1 5F8E3794
P 8800 6550
F 0 "LED21" H 8800 6350 60  0000 C CNN
F 1 "WS2812B" H 8800 6750 60  0000 C CNN
F 2 "LED:LED_WS2812_0807_HOLE" V 9050 6850 60  0001 C CNN
F 3 "" V 8750 6550 60  0000 C CNN
	1    8800 6550
	1    0    0    -1  
$EndComp
$Comp
L ergodash-rescue:WS2812B-ws2812b LED23
U 1 1 5F8E379E
P 9450 6550
F 0 "LED23" H 9450 6350 60  0000 C CNN
F 1 "WS2812B" H 9450 6750 60  0000 C CNN
F 2 "LED:LED_WS2812_0807_HOLE" V 9700 6850 60  0001 C CNN
F 3 "" V 9400 6550 60  0000 C CNN
	1    9450 6550
	1    0    0    -1  
$EndComp
$Comp
L ergodash-rescue:WS2812B-ws2812b LED14
U 1 1 5F8E37A8
P 6200 7450
F 0 "LED14" H 6200 7250 60  0000 C CNN
F 1 "WS2812B" H 6200 7650 60  0000 C CNN
F 2 "LED:LED_WS2812_0807_HOLE" V 6450 7750 60  0001 C CNN
F 3 "" V 6150 7450 60  0000 C CNN
	1    6200 7450
	1    0    0    -1  
$EndComp
$Comp
L ergodash-rescue:WS2812B-ws2812b LED16
U 1 1 5F8E37B2
P 6850 7450
F 0 "LED16" H 6850 7250 60  0000 C CNN
F 1 "WS2812B" H 6850 7650 60  0000 C CNN
F 2 "LED:LED_WS2812_0807_HOLE" V 7100 7750 60  0001 C CNN
F 3 "" V 6800 7450 60  0000 C CNN
	1    6850 7450
	1    0    0    -1  
$EndComp
$Comp
L ergodash-rescue:WS2812B-ws2812b LED18
U 1 1 5F8E37BC
P 7500 7450
F 0 "LED18" H 7500 7250 60  0000 C CNN
F 1 "WS2812B" H 7500 7650 60  0000 C CNN
F 2 "LED:LED_WS2812_0807_HOLE" V 7750 7750 60  0001 C CNN
F 3 "" V 7450 7450 60  0000 C CNN
	1    7500 7450
	1    0    0    -1  
$EndComp
$Comp
L ergodash-rescue:WS2812B-ws2812b LED20
U 1 1 5F8E37C6
P 8150 7450
F 0 "LED20" H 8150 7250 60  0000 C CNN
F 1 "WS2812B" H 8150 7650 60  0000 C CNN
F 2 "LED:LED_WS2812_0807_HOLE" V 8400 7750 60  0001 C CNN
F 3 "" V 8100 7450 60  0000 C CNN
	1    8150 7450
	1    0    0    -1  
$EndComp
$Comp
L ergodash-rescue:WS2812B-ws2812b LED22
U 1 1 5F8E37D0
P 8800 7450
F 0 "LED22" H 8800 7250 60  0000 C CNN
F 1 "WS2812B" H 8800 7650 60  0000 C CNN
F 2 "LED:LED_WS2812_0807_HOLE" V 9050 7750 60  0001 C CNN
F 3 "" V 8750 7450 60  0000 C CNN
	1    8800 7450
	1    0    0    -1  
$EndComp
$Comp
L ergodash-rescue:WS2812B-ws2812b LED24
U 1 1 5F8E37DA
P 9450 7450
F 0 "LED24" H 9450 7250 60  0000 C CNN
F 1 "WS2812B" H 9450 7650 60  0000 C CNN
F 2 "LED:LED_WS2812_0807_HOLE" V 9700 7750 60  0001 C CNN
F 3 "" V 9400 7450 60  0000 C CNN
	1    9450 7450
	1    0    0    -1  
$EndComp
Connection ~ 6750 6200
Connection ~ 7400 6200
Connection ~ 8050 6200
Connection ~ 8700 6200
Connection ~ 6750 7100
Connection ~ 7400 7100
Connection ~ 8050 7100
Connection ~ 8700 7100
Wire Wire Line
	6300 6900 6950 6900
Connection ~ 6950 6900
Connection ~ 7600 6900
Connection ~ 8250 6900
Connection ~ 8900 6900
Connection ~ 6950 7800
Connection ~ 7600 7800
Connection ~ 8250 7800
Connection ~ 8900 7800
Wire Wire Line
	6550 6450 6550 6550
Wire Wire Line
	6550 6550 6500 6550
Wire Wire Line
	6500 6550 6500 6650
Wire Wire Line
	7200 6450 7200 6550
Wire Wire Line
	7200 6550 7150 6550
Wire Wire Line
	7150 6550 7150 6650
Wire Wire Line
	7850 6450 7850 6550
Wire Wire Line
	7850 6550 7800 6550
Wire Wire Line
	7800 6550 7800 6650
Wire Wire Line
	8500 6450 8500 6550
Wire Wire Line
	8500 6550 8450 6550
Wire Wire Line
	8450 6550 8450 6650
Wire Wire Line
	9150 6450 9150 6550
Wire Wire Line
	9150 6550 9100 6550
Wire Wire Line
	9100 6550 9100 6650
Wire Wire Line
	6550 7350 6550 7450
Wire Wire Line
	6550 7450 6500 7450
Wire Wire Line
	6500 7450 6500 7550
Wire Wire Line
	7200 7350 7200 7450
Wire Wire Line
	7200 7450 7150 7450
Wire Wire Line
	7150 7450 7150 7550
Wire Wire Line
	7850 7350 7850 7450
Wire Wire Line
	7850 7450 7800 7450
Wire Wire Line
	7800 7450 7800 7550
Wire Wire Line
	8500 7350 8500 7450
Wire Wire Line
	8500 7450 8450 7450
Wire Wire Line
	8450 7450 8450 7550
Wire Wire Line
	9150 7350 9150 7450
Wire Wire Line
	9150 7450 9100 7450
Wire Wire Line
	9100 7450 9100 7550
Wire Wire Line
	5850 7550 5850 7000
Wire Wire Line
	5850 7000 9800 7000
Wire Wire Line
	9800 7000 9800 6450
Wire Wire Line
	10350 7800 10350 6900
Connection ~ 9550 7800
Connection ~ 9550 6900
Wire Wire Line
	6750 6200 7400 6200
Wire Wire Line
	7400 6200 8050 6200
Wire Wire Line
	8050 6200 8700 6200
Wire Wire Line
	8700 6200 9350 6200
Wire Wire Line
	6750 7100 7400 7100
Wire Wire Line
	7400 7100 8050 7100
Wire Wire Line
	8050 7100 8700 7100
Wire Wire Line
	8700 7100 9350 7100
Wire Wire Line
	6950 6900 7600 6900
Wire Wire Line
	7600 6900 8250 6900
Wire Wire Line
	8250 6900 8900 6900
Wire Wire Line
	8900 6900 9550 6900
Wire Wire Line
	6950 7800 7600 7800
Wire Wire Line
	7600 7800 8250 7800
Wire Wire Line
	8250 7800 8900 7800
Wire Wire Line
	8900 7800 9550 7800
Wire Wire Line
	6100 7100 6750 7100
Wire Wire Line
	9550 7800 10350 7800
Wire Wire Line
	9550 6900 10350 6900
Wire Wire Line
	6300 7800 6950 7800
Wire Wire Line
	6100 6200 6750 6200
$Comp
L ergodash-rescue:WS2812B-ws2812b LED13
U 1 1 5F8E3837
P 6200 6550
F 0 "LED13" H 6200 6350 60  0000 C CNN
F 1 "WS2812B" H 6200 6750 60  0000 C CNN
F 2 "LED:LED_WS2812_0807_HOLE" V 6450 6850 60  0001 C CNN
F 3 "" V 6150 6550 60  0000 C CNN
	1    6200 6550
	1    0    0    -1  
$EndComp
Wire Wire Line
	9800 5500 9950 5500
Wire Wire Line
	9950 5500 9950 6100
Wire Wire Line
	9350 6200 10500 6200
Wire Wire Line
	10500 6200 10500 5250
Wire Wire Line
	10500 4350 9350 4350
Connection ~ 9350 6200
Connection ~ 9350 4350
Wire Wire Line
	10350 6900 10350 5950
Connection ~ 10350 6900
Connection ~ 10350 5950
Wire Wire Line
	5850 6650 5850 6100
Wire Wire Line
	8900 5950 9550 5950
Wire Wire Line
	8250 5950 8900 5950
Connection ~ 8900 5950
Wire Wire Line
	9950 6100 5850 6100
$Comp
L ergodash-rescue:WS2812B-ws2812b LED11
U 1 1 5B075404
P 8800 5600
F 0 "LED11" H 8800 5400 60  0000 C CNN
F 1 "WS2812B" H 8800 5800 60  0000 C CNN
F 2 "LED:LED_WS2812_0807_HOLE" V 9050 5900 60  0001 C CNN
F 3 "" V 8750 5600 60  0000 C CNN
	1    8800 5600
	1    0    0    -1  
$EndComp
Wire Wire Line
	8050 5250 8700 5250
Connection ~ 8050 5250
Wire Wire Line
	9350 5250 8700 5250
Connection ~ 8700 5250
Wire Wire Line
	9350 5250 10500 5250
Connection ~ 9350 5250
Connection ~ 10500 5250
Wire Wire Line
	10500 5250 10500 4350
Wire Wire Line
	9350 7100 10500 7100
Wire Wire Line
	10500 7100 10500 6200
Connection ~ 9350 7100
Connection ~ 10500 6200
$Comp
L ergodash-rescue:WS2812B-ws2812b LED27
U 1 1 5F9A71AB
P 6850 8350
F 0 "LED27" H 6850 8150 60  0000 C CNN
F 1 "WS2812B" H 6850 8550 60  0000 C CNN
F 2 "LED:LED_WS2812_0807_HOLE" V 7100 8650 60  0001 C CNN
F 3 "" V 6800 8350 60  0000 C CNN
	1    6850 8350
	1    0    0    -1  
$EndComp
$Comp
L ergodash-rescue:WS2812B-ws2812b LED29
U 1 1 5F9A71B1
P 7500 8350
F 0 "LED29" H 7500 8150 60  0000 C CNN
F 1 "WS2812B" H 7500 8550 60  0000 C CNN
F 2 "LED:LED_WS2812_0807_HOLE" V 7750 8650 60  0001 C CNN
F 3 "" V 7450 8350 60  0000 C CNN
	1    7500 8350
	1    0    0    -1  
$EndComp
$Comp
L ergodash-rescue:WS2812B-ws2812b LED31
U 1 1 5F9A71B7
P 8150 8350
F 0 "LED31" H 8150 8150 60  0000 C CNN
F 1 "WS2812B" H 8150 8550 60  0000 C CNN
F 2 "LED:LED_WS2812_0807_HOLE" V 8400 8650 60  0001 C CNN
F 3 "" V 8100 8350 60  0000 C CNN
	1    8150 8350
	1    0    0    -1  
$EndComp
$Comp
L ergodash-rescue:WS2812B-ws2812b LED33
U 1 1 5F9A71BD
P 8800 8350
F 0 "LED33" H 8800 8150 60  0000 C CNN
F 1 "WS2812B" H 8800 8550 60  0000 C CNN
F 2 "LED:LED_WS2812_0807_HOLE" V 9050 8650 60  0001 C CNN
F 3 "" V 8750 8350 60  0000 C CNN
	1    8800 8350
	1    0    0    -1  
$EndComp
$Comp
L ergodash-rescue:WS2812B-ws2812b LED35
U 1 1 5F9A71C3
P 9450 8350
F 0 "LED35" H 9450 8150 60  0000 C CNN
F 1 "WS2812B" H 9450 8550 60  0000 C CNN
F 2 "LED:LED_WS2812_0807_HOLE" V 9700 8650 60  0001 C CNN
F 3 "" V 9400 8350 60  0000 C CNN
	1    9450 8350
	1    0    0    -1  
$EndComp
$Comp
L ergodash-rescue:WS2812B-ws2812b LED26
U 1 1 5F9A71C9
P 6200 9250
F 0 "LED26" H 6200 9050 60  0000 C CNN
F 1 "WS2812B" H 6200 9450 60  0000 C CNN
F 2 "LED:LED_WS2812_0807_HOLE" V 6450 9550 60  0001 C CNN
F 3 "" V 6150 9250 60  0000 C CNN
	1    6200 9250
	1    0    0    -1  
$EndComp
$Comp
L ergodash-rescue:WS2812B-ws2812b LED28
U 1 1 5F9A71CF
P 6850 9250
F 0 "LED28" H 6850 9050 60  0000 C CNN
F 1 "WS2812B" H 6850 9450 60  0000 C CNN
F 2 "LED:LED_WS2812_0807_HOLE" V 7100 9550 60  0001 C CNN
F 3 "" V 6800 9250 60  0000 C CNN
	1    6850 9250
	1    0    0    -1  
$EndComp
$Comp
L ergodash-rescue:WS2812B-ws2812b LED30
U 1 1 5F9A71D5
P 7500 9250
F 0 "LED30" H 7500 9050 60  0000 C CNN
F 1 "WS2812B" H 7500 9450 60  0000 C CNN
F 2 "LED:LED_WS2812_0807_HOLE" V 7750 9550 60  0001 C CNN
F 3 "" V 7450 9250 60  0000 C CNN
	1    7500 9250
	1    0    0    -1  
$EndComp
$Comp
L ergodash-rescue:WS2812B-ws2812b LED32
U 1 1 5F9A71DB
P 8150 9250
F 0 "LED32" H 8150 9050 60  0000 C CNN
F 1 "WS2812B" H 8150 9450 60  0000 C CNN
F 2 "LED:LED_WS2812_0807_HOLE" V 8400 9550 60  0001 C CNN
F 3 "" V 8100 9250 60  0000 C CNN
	1    8150 9250
	1    0    0    -1  
$EndComp
Text Label 9900 9150 0    60   ~ 0
xtradata
Connection ~ 6750 8000
Connection ~ 7400 8000
Connection ~ 8050 8000
Connection ~ 8700 8000
Connection ~ 6750 8900
Connection ~ 7400 8900
Connection ~ 8050 8900
Wire Wire Line
	6300 8700 6950 8700
Connection ~ 6950 8700
Connection ~ 7600 8700
Connection ~ 8250 8700
Connection ~ 8900 8700
Connection ~ 6950 9600
Connection ~ 7600 9600
Connection ~ 8250 9600
Wire Wire Line
	6550 8250 6550 8350
Wire Wire Line
	6550 8350 6500 8350
Wire Wire Line
	6500 8350 6500 8450
Wire Wire Line
	7200 8250 7200 8350
Wire Wire Line
	7200 8350 7150 8350
Wire Wire Line
	7150 8350 7150 8450
Wire Wire Line
	7850 8250 7850 8350
Wire Wire Line
	7850 8350 7800 8350
Wire Wire Line
	7800 8350 7800 8450
Wire Wire Line
	8500 8250 8500 8350
Wire Wire Line
	8500 8350 8450 8350
Wire Wire Line
	8450 8350 8450 8450
Wire Wire Line
	9150 8250 9150 8350
Wire Wire Line
	9150 8350 9100 8350
Wire Wire Line
	9100 8350 9100 8450
Wire Wire Line
	6550 9150 6550 9250
Wire Wire Line
	6550 9250 6500 9250
Wire Wire Line
	6500 9250 6500 9350
Wire Wire Line
	7200 9150 7200 9250
Wire Wire Line
	7200 9250 7150 9250
Wire Wire Line
	7150 9250 7150 9350
Wire Wire Line
	7850 9150 7850 9250
Wire Wire Line
	7850 9250 7800 9250
Wire Wire Line
	7800 9250 7800 9350
Wire Wire Line
	5850 9350 5850 8800
Wire Wire Line
	5850 8800 9800 8800
Wire Wire Line
	9800 8800 9800 8250
Connection ~ 9550 8700
Wire Wire Line
	6750 8000 7400 8000
Wire Wire Line
	7400 8000 8050 8000
Wire Wire Line
	8050 8000 8700 8000
Wire Wire Line
	8700 8000 9350 8000
Wire Wire Line
	6750 8900 7400 8900
Wire Wire Line
	7400 8900 8050 8900
Wire Wire Line
	6950 8700 7600 8700
Wire Wire Line
	7600 8700 8250 8700
Wire Wire Line
	8250 8700 8900 8700
Wire Wire Line
	8900 8700 9550 8700
Wire Wire Line
	6950 9600 7600 9600
Wire Wire Line
	7600 9600 8250 9600
Wire Wire Line
	6100 8900 6750 8900
Wire Wire Line
	9550 8700 10350 8700
Wire Wire Line
	6300 9600 6950 9600
Wire Wire Line
	6100 8000 6750 8000
$Comp
L ergodash-rescue:WS2812B-ws2812b LED25
U 1 1 5F9A7238
P 6200 8350
F 0 "LED25" H 6200 8150 60  0000 C CNN
F 1 "WS2812B" H 6200 8550 60  0000 C CNN
F 2 "LED:LED_WS2812_0807_HOLE" V 6450 8650 60  0001 C CNN
F 3 "" V 6150 8350 60  0000 C CNN
	1    6200 8350
	1    0    0    -1  
$EndComp
Wire Wire Line
	9350 8000 10500 8000
Connection ~ 9350 8000
Wire Wire Line
	10500 8000 10500 7100
Connection ~ 10500 7100
Wire Wire Line
	10500 8900 10500 8000
Connection ~ 10500 8000
Wire Wire Line
	10350 8700 10350 7800
Connection ~ 10350 7800
Wire Wire Line
	10350 9600 10350 8700
Connection ~ 10350 8700
Wire Wire Line
	5850 8450 5850 7900
Wire Wire Line
	9950 7900 9950 7350
Wire Wire Line
	9950 7350 9800 7350
Wire Wire Line
	5850 7900 9950 7900
Wire Wire Line
	8050 8900 10500 8900
Wire Wire Line
	8250 9600 10350 9600
Wire Wire Line
	8500 9150 9900 9150
Wire Wire Line
	4500 4550 4500 4450
Wire Wire Line
	4500 4550 5100 4550
Wire Wire Line
	4800 5050 4800 5150
Wire Wire Line
	4400 5150 4800 5150
Wire Wire Line
	3850 2100 4150 2100
$Comp
L ergodash-rescue:ProMicro-promicro U6
U 1 1 5B02D88B
P 2000 5550
F 0 "U6" H 2000 6500 60  0000 C CNN
F 1 "ProMicro" H 2000 5000 60  0000 C CNN
F 2 "Rev2:ProMicro_rev" H 2100 4500 60  0001 C CNN
F 3 "" H 2100 4500 60  0000 C CNN
	1    2000 5550
	1    0    0    -1  
$EndComp
$EndSCHEMATC
