(module library:Diode_SMD_THT2 (layer F.Cu) (tedit 5A5B791D)
  (descr "D, DO-35_SOD27 series, Axial, Horizontal, pin pitch=10.16mm, , length*diameter=4*2mm^2, , http://www.diodes.com/_files/packages/DO-35.pdf")
  (tags "D DO-35_SOD27 series Axial Horizontal pin pitch 10.16mm  length 4mm diameter 2mm")
  (fp_text reference D68 (at 5.08 -2.06) (layer F.SilkS) hide
    (effects (font (size 1 1) (thickness 0.15)))
  )
  (fp_text value D (at 5.08 2.06) (layer F.Fab)
    (effects (font (size 1 1) (thickness 0.15)))
  )
  (fp_line (start 4.56 0) (end 5.6 -0.7) (layer F.SilkS) (width 0.15))
  (fp_line (start 5.6 -0.7) (end 5.6 0.7) (layer F.SilkS) (width 0.15))
  (fp_line (start 5.6 0.7) (end 4.56 0) (layer F.SilkS) (width 0.15))
  (fp_line (start 4.56 0.7) (end 4.56 -0.7) (layer F.SilkS) (width 0.15))
  (fp_line (start 7.92 0) (end 8.89 0) (layer F.SilkS) (width 0.15))
  (fp_line (start 1.27 0) (end 2.24 0) (layer F.SilkS) (width 0.15))
  (fp_line (start -1.05 -1.35) (end -1.05 1.35) (layer F.CrtYd) (width 0.05))
  (fp_line (start -1.05 1.35) (end 11.25 1.35) (layer F.CrtYd) (width 0.05))
  (fp_line (start 11.25 1.35) (end 11.25 -1.35) (layer F.CrtYd) (width 0.05))
  (fp_line (start 11.25 -1.35) (end -1.05 -1.35) (layer F.CrtYd) (width 0.05))
  (pad 1 thru_hole rect (at 3.45 0) (size 1.6 1.2) (drill 0.4) (layers *.Cu *.Mask))
  (pad 2 thru_hole oval (at 10.16 0) (size 1.6 1.6) (drill 0.8) (layers *.Cu *.Mask))
  (pad 1 thru_hole rect (at 0 0) (size 1.6 1.6) (drill 0.8) (layers *.Cu *.Mask))
  (pad 2 thru_hole rect (at 6.71 0) (size 1.6 1.2) (drill 0.4) (layers *.Cu *.Mask))
  (model ${KISYS3DMOD}/Diodes_THT.3dshapes/D_DO-35_SOD27_P10.16mm_Horizontal.wrl
    (at (xyz 0 0 0))
    (scale (xyz 0.393701 0.393701 0.393701))
    (rotate (xyz 0 0 0))
  )
)
