(module kbd:MJ-4PP-9_1side (layer F.Cu) (tedit 5F211959)
  (fp_text reference J1 (at -0.85 4.95) (layer F.Fab)
    (effects (font (size 1 1) (thickness 0.15)))
  )
  (fp_text value MJ-4PP-9 (at 0 14) (layer F.Fab) hide
    (effects (font (size 1 1) (thickness 0.15)))
  )
  (fp_text user TRRS (at -0.75 6.45) (layer F.SilkS)
    (effects (font (size 1 1) (thickness 0.15)))
  )
  (fp_line (start -2.9 11.9) (end -2.9 0.15) (layer F.SilkS) (width 0.15))
  (fp_line (start 2.9 11.9) (end -2.9 11.9) (layer F.SilkS) (width 0.15))
  (fp_line (start 2.9 0.15) (end 2.9 11.9) (layer F.SilkS) (width 0.15))
  (fp_line (start -2.9 0.15) (end 2.9 0.15) (layer F.SilkS) (width 0.15))
  (pad "" np_thru_hole circle (at 0 1.5) (size 1.2 1.2) (drill 1.2) (layers *.Cu *.Mask F.SilkS))
  (pad "" np_thru_hole circle (at 0 8.5) (size 1.2 1.2) (drill 1.2) (layers *.Cu *.Mask F.SilkS))
  (pad B thru_hole oval (at 2.1 3.3) (size 1.7 2.5) (drill oval 1 1.5) (layers *.Cu F.SilkS B.Mask))
  (pad C thru_hole oval (at 2.1 6.3) (size 1.7 2.5) (drill oval 1 1.5) (layers *.Cu F.SilkS B.Mask))
  (pad D thru_hole oval (at 2.1 10.3) (size 1.7 2.5) (drill oval 1 1.5) (layers *.Cu F.SilkS B.Mask)
    (clearance 0.15))
  (pad A thru_hole oval (at -2.1 11.8) (size 1.7 2.5) (drill oval 1 1.5) (layers *.Cu F.SilkS B.Mask)
    (clearance 0.15))
  (model /Users/foostan/src/github.com/foostan/kbd/kicad-packages3D/PJ320A.step
    (offset (xyz 0 -8.5 0))
    (scale (xyz 1 1 1))
    (rotate (xyz 0 0 0))
  )
)
